{
  "docusaurus-lunr-search": {
    "default": {
      "fileNames": {
        "searchDoc": "search-doc-1713766753750.json",
        "lunrIndex": "lunr-index-1713766753750.json"
      }
    }
  },
  "docusaurus-plugin-content-docs": {
    "default": {
      "path": "/authtication-firebase-search/docs",
      "versions": [
        {
          "name": "current",
          "label": "Next",
          "isLast": true,
          "path": "/authtication-firebase-search/docs",
          "mainDocId": "intro",
          "docs": [
            {
              "id": "intro",
              "path": "/authtication-firebase-search/docs/intro",
              "sidebar": "tutorialSidebar"
            },
            {
              "id": "tutorial-basics/congratulations",
              "path": "/authtication-firebase-search/docs/tutorial-basics/congratulations",
              "sidebar": "tutorialSidebar"
            },
            {
              "id": "tutorial-basics/create-a-blog-post",
              "path": "/authtication-firebase-search/docs/tutorial-basics/create-a-blog-post",
              "sidebar": "tutorialSidebar"
            },
            {
              "id": "tutorial-basics/create-a-document",
              "path": "/authtication-firebase-search/docs/tutorial-basics/create-a-document",
              "sidebar": "tutorialSidebar"
            },
            {
              "id": "tutorial-basics/create-a-page",
              "path": "/authtication-firebase-search/docs/tutorial-basics/create-a-page",
              "sidebar": "tutorialSidebar"
            },
            {
              "id": "tutorial-basics/deploy-your-site",
              "path": "/authtication-firebase-search/docs/tutorial-basics/deploy-your-site",
              "sidebar": "tutorialSidebar"
            },
            {
              "id": "tutorial-basics/markdown-features",
              "path": "/authtication-firebase-search/docs/tutorial-basics/markdown-features",
              "sidebar": "tutorialSidebar"
            },
            {
              "id": "tutorial-extras/manage-docs-versions",
              "path": "/authtication-firebase-search/docs/tutorial-extras/manage-docs-versions",
              "sidebar": "tutorialSidebar"
            },
            {
              "id": "tutorial-extras/translate-your-site",
              "path": "/authtication-firebase-search/docs/tutorial-extras/translate-your-site",
              "sidebar": "tutorialSidebar"
            },
            {
              "id": "/category/tutorial---basics",
              "path": "/authtication-firebase-search/docs/category/tutorial---basics",
              "sidebar": "tutorialSidebar"
            },
            {
              "id": "/category/tutorial---extras",
              "path": "/authtication-firebase-search/docs/category/tutorial---extras",
              "sidebar": "tutorialSidebar"
            }
          ],
          "draftIds": [],
          "sidebars": {
            "tutorialSidebar": {
              "link": {
                "path": "/authtication-firebase-search/docs/intro",
                "label": "intro"
              }
            }
          }
        }
      ],
      "breadcrumbs": true
    }
  }
}